…
dynamite_reviews = bind_rows(
  read_page_reviews(vec_urls[1]),
  read_page_reviews(vec_urls[2]),
  read_page_reviews(vec_urls[3]),
  read_page_reviews(vec_urls[4]),
  read_page_reviews(vec_urls[5])
)

dynamite_reviews
```

    ## # A tibble: 50 × 3
    ##    title                                      stars text                        
    ##    <chr>                                      <dbl> <chr>                       
    ##  1 Best                                           5 "One of the funniest movies…
    ##  2 Classic Movie                                  5 "Love this movie. Everyone …
    ##  3 Goofy movie                                    5 "I used this movie for a mi…
    ##  4 Lol hey it’s Napoleon. What’s not to love…     5 "Vote for Pedro"            
    ##  5 Still the best                                 5 "Completely stupid, absolut…
    ##  6 70’s and 80’s Schtick Comedy                   5 "…especially funny if you h…
    ##  7 Amazon Censorship                              5 "I hope Amazon does not cen…
    ##  8 Watch to say you did                           3 "I know it's supposed to be…
    ##  9 Best Movie Ever!                               5 "We just love this movie an…
    ## 10 Quirky                                         5 "Good family film"          
    ## # … with 40 more rows
…
